Abel,Maclead,770308107,Address [addressLine=770308107, city=37275 St  Rt 17m M, zipCode=Middle Island, stateCode=11953]
Adelina,Nabours,441034451,Address [addressLine=441034451, city=80 Pittsford Victor Rd #9, zipCode=Cleveland, stateCode=44103]
Adell,Lipkin,135989684,Address [addressLine=135989684, city=65 Mountain View Dr, zipCode=Whippany, stateCode=7981]
Ahmed,Angalich,441034452,Address [addressLine=441034452, city=2 W Beverly Blvd, zipCode=Harrisburg, stateCode=17110]
Aja,Gehrett,616976650,Address [addressLine=616976650, city=993 Washington Ave, zipCode=Nutley, stateCode=7110]
Alaine,Bergesen,441034453,Address [addressLine=441034453, city=7667 S Hulen St #42, zipCode=Yonkers, stateCode=10701]
Albina,Glick,494562403,Address [addressLine=494562403, city=4 Ralph Ct, zipCode=Dunellen, stateCode=8812]
Alease,Buemi,441034454,Address [addressLine=441034454, city=4 Webbs Chapel Rd, zipCode=Boulder, stateCode=80303]
Alecia,Bubash,146464734,Address [addressLine=146464734, city=6535 Joyce St, zipCode=Wichita Falls, stateCode=76301]
Alesia,Hixenbaugh,441034455,Address [addressLine=441034455, city=9 Front St, zipCode=Washington, stateCode=20001]
Alex,Loader,426952854,Address [addressLine=426952854, city=37 N Elm St #916, zipCode=Tacoma, stateCode=98409]
Alisha,Slusarski,441034456,Address [addressLine=441034456, city=3273 State St, zipCode=Middlesex, stateCode=8846]
Alishia,Sergi,503100263,Address [addressLine=503100263, city=2742 Distribution Way, zipCode=New York, stateCode=10025]
Aliza,Baltimore,441034457,Address [addressLine=441034457, city=1128 Delaware St, zipCode=San Jose, stateCode=95132]
Allene,Iturbide,554121777,Address [addressLine=554121777, city=1 Central Ave, zipCode=Stevens Point, stateCode=54481]
Alline,Jeanty,441034458,Address [addressLine=441034458, city=55713 Lake City Hwy, zipCode=South Bend, stateCode=46601]
Alpha,Palaia,204481945,Address [addressLine=204481945, city=43496 Commercial Dr #29, zipCode=Cherry Hill, stateCode=8003]
Alyce,Arias,441034459,Address [addressLine=441034459, city=3196 S Rider Trl, zipCode=Stockton, stateCode=95207]
Amber,Monarrez,622812285,Address [addressLine=622812285, city=14288 Foster Ave #4121, zipCode=Jenkintown, stateCode=19046]
Amie,Perigo,441034460,Address [addressLine=441034460, city=596 Santa Maria Ave #7913, zipCode=Mesquite, stateCode=75150]
Ammie,Corrio,513362850,Address [addressLine=513362850, city=74874 Atlantic Ave, zipCode=Columbus, stateCode=43215]
An,Fritz,441034461,Address [addressLine=441034461, city=506 S Hacienda Dr, zipCode=Atlantic City, stateCode=8401]
Andra,Scheyer,241231668,Address [addressLine=241231668, city=9 Church St, zipCode=Salem, stateCode=97302]
Angella,Cetta,441034462,Address [addressLine=441034462, city=185 Blackstone Bldge, zipCode=Honolulu, stateCode=96817]
Annabelle,Boord,864932976,Address [addressLine=864932976, city=523 Marquette Ave, zipCode=Concord, stateCode=1742]
Annelle,Tagala,441034463,Address [addressLine=441034463, city=5 W 7th St, zipCode=Parkville, stateCode=21234]
Annmarie,Castros,139899358,Address [addressLine=139899358, city=80312 W 32nd St, zipCode=Conroe, stateCode=77301]
Antione,Onofrio,441034464,Address [addressLine=441034464, city=4 S Washington Ave, zipCode=San Bernardino, stateCode=92410]
Arlene,Klusman,757812915,Address [addressLine=757812915, city=3 Secor Rd, zipCode=New Orleans, stateCode=70112]
Arlette,Honeywell,441034465,Address [addressLine=441034465, city=11279 Loytan St, zipCode=Jacksonville, stateCode=32254]
Arminda,Parvis,501454697,Address [addressLine=501454697, city=1 Huntwood Ave, zipCode=Phoenix, stateCode=85017]
Art,Venere,441034466,Address [addressLine=441034466, city=8 W Cerritos Ave #54, zipCode=Bridgeport, stateCode=8014]
Arthur,Farrow,429040694,Address [addressLine=429040694, city=28 S 7th St #2824, zipCode=Englewood, stateCode=7631]
Ashlyn,Pinilla,441034467,Address [addressLine=441034467, city=703 Beville Rd, zipCode=Opa Locka, stateCode=33054]
Audra,Kohnert,990179040,Address [addressLine=990179040, city=134 Lewis Rd, zipCode=Nashville, stateCode=37211]
Audry,Yaw,441034468,Address [addressLine=441034468, city=70295 Pioneer Ct, zipCode=Brandon, stateCode=33511]
Avery,Steier,441882658,Address [addressLine=441882658, city=93 Redmond Rd #492, zipCode=Orlando, stateCode=32803]
Barbra,Adkin,441034469,Address [addressLine=441034469, city=4 Kohler Memorial Dr, zipCode=Brooklyn, stateCode=11230]
Barrett,Toyama,471829994,Address [addressLine=471829994, city=4252 N Washington Ave #9, zipCode=Kennedale, stateCode=76060]
Beatriz,Corrington,441034470,Address [addressLine=441034470, city=481 W Lemon St, zipCode=Middleboro, stateCode=2346]
Beckie,Silvestrini,794288478,Address [addressLine=794288478, city=7116 Western Ave, zipCode=Dearborn, stateCode=48126]
Becky,Mirafuentes,441034471,Address [addressLine=441034471, city=30553 Washington Rd, zipCode=Plainfield, stateCode=7062]
Belen,Strassner,153585263,Address [addressLine=153585263, city=5384 Southwyck Blvd, zipCode=Douglasville, stateCode=30135]
Benedict,Sama,441034472,Address [addressLine=441034472, city=4923 Carey Ave, zipCode=Saint Louis, stateCode=63104]
Benton,Skursky,680746009,Address [addressLine=680746009, city=47939 Porter Ave, zipCode=Gardena, stateCode=90248]
Bernardine,Rodefer,441034473,Address [addressLine=441034473, city=2 W Grand Ave, zipCode=Memphis, stateCode=38112]
Bernardo,Figeroa,285713497,Address [addressLine=285713497, city=386 9th Ave N, zipCode=Conroe, stateCode=77301]
Bette,Nicka,441034474,Address [addressLine=441034474, city=6 S 33rd St, zipCode=Aston, stateCode=19014]
Billye,Miro,676769853,Address [addressLine=676769853, city=36 Lancaster Dr Se, zipCode=Pearl, stateCode=39208]
Blair,Malet,441034475,Address [addressLine=441034475, city=209 Decker Dr, zipCode=Philadelphia, stateCode=19132]
Blondell,Pugh,483995693,Address [addressLine=483995693, city=201 Hawk Ct, zipCode=Providence, stateCode=2904]
Bobbye,Rhym,441034476,Address [addressLine=441034476, city=30 W 80th St #1995, zipCode=San Carlos, stateCode=94070]
Bok,Isaacs,544255289,Address [addressLine=544255289, city=6 Gilson St, zipCode=Bronx, stateCode=10468]
Brandon,Callaro,441034477,Address [addressLine=441034477, city=7 Benton Dr, zipCode=Honolulu, stateCode=96819]
Brett,Mccullan,780989084,Address [addressLine=780989084, city=87895 Concord Rd, zipCode=La Mesa, stateCode=91942]
Britt,Galam,441034478,Address [addressLine=441034478, city=2500 Pringle Rd Se #508, zipCode=Hatfield, stateCode=19440]
Brittni,Gillaspie,328061566,Address [addressLine=328061566, city=67 Rv Cent, zipCode=Boise, stateCode=83709]
Brock,Bolognia,441034479,Address [addressLine=441034479, city=4486 W O St #1, zipCode=New York, stateCode=10003]
Buddy,Cloney,782214514,Address [addressLine=782214514, city=944 Gaither Dr, zipCode=Strongsville, stateCode=44136]
Bulah,Padilla,441034480,Address [addressLine=441034480, city=8927 Vandever Ave, zipCode=Waco, stateCode=76707]
Caitlin,Julia,315145835,Address [addressLine=315145835, city=5 Williams St, zipCode=Johnston, stateCode=2919]
Cammy,Albares,441034481,Address [addressLine=441034481, city=56 E Morehead St, zipCode=Laredo, stateCode=78045]
Candida,Corbley,818336052,Address [addressLine=818336052, city=406 Main St, zipCode=Somerville, stateCode=8876]
Caprice,Suell,441034482,Address [addressLine=441034482, city=90177 N 55th Ave, zipCode=Nashville, stateCode=37211]
Carey,Dopico,124384160,Address [addressLine=124384160, city=87393 E Highland Rd, zipCode=Indianapolis, stateCode=46220]
Carin,Deleo,441034483,Address [addressLine=441034483, city=1844 Southern Blvd, zipCode=Little Rock, stateCode=72202]
Carissa,Batman,286690841,Address [addressLine=286690841, city=12270 Caton Center Dr, zipCode=Eugene, stateCode=97401]
Carlee,Boulter,441034484,Address [addressLine=441034484, city=8284 Hart St, zipCode=Abilene, stateCode=67410]
Carma,Vanheusen,176059212,Address [addressLine=176059212, city=68556 Central Hwy, zipCode=San Leandro, stateCode=94577]
Carmela,Cookey,441034485,Address [addressLine=441034485, city=9 Murfreesboro Rd, zipCode=Chicago, stateCode=60623]
Carmelina,Lindall,696022877,Address [addressLine=696022877, city=2664 Lewis Rd, zipCode=Littleton, stateCode=80126]
Carmen,Sweigard,441034486,Address [addressLine=441034486, city=61304 N French Rd, zipCode=Somerset, stateCode=8873]
Casie,Good,122090926,Address [addressLine=122090926, city=5221 Bear Valley Rd, zipCode=Nashville, stateCode=37211]
Cassi,Wildfong,441034487,Address [addressLine=441034487, city=26849 Jefferson Hwy, zipCode=Rolling Meadows, stateCode=60008]
Catalina,Tillotson,612951768,Address [addressLine=612951768, city=3338 A Lockport Pl #6, zipCode=Margate City, stateCode=8402]
Catarina,Gleich,441034488,Address [addressLine=441034488, city=78 Maryland Dr #146, zipCode=Denville, stateCode=7834]
Cathrine,Pontoriero,754978634,Address [addressLine=754978634, city=812 S Haven St, zipCode=Amarillo, stateCode=79109]
Cecil,Lapage,441034489,Address [addressLine=441034489, city=4 Stovall St #72, zipCode=Union City, stateCode=7087]
Cecilia,Colaizzo,451443629,Address [addressLine=451443629, city=4 Nw 12th St #3849, zipCode=Madison, stateCode=53717]
Cecily,Hollack,441034490,Address [addressLine=441034490, city=59 N Groesbeck Hwy, zipCode=Austin, stateCode=78731]
Celeste,Korando,879635376,Address [addressLine=879635376, city=7 W Pinhook Rd, zipCode=Lynbrook, stateCode=11563]
Ceola,Setter,441034491,Address [addressLine=441034491, city=96263 Greenwood Pl, zipCode=Warren, stateCode=4864]
Chanel,Caudy,823774215,Address [addressLine=823774215, city=86 Nw 66th St #8673, zipCode=Shawnee, stateCode=66218]
Chantell,Maynerich,441034492,Address [addressLine=441034492, city=2023 Greg St, zipCode=Saint Paul, stateCode=55101]
Charlene,Hamilton,125059591,Address [addressLine=125059591, city=985 E 6th Ave, zipCode=Santa Rosa, stateCode=95407]
Chau,Kitzman,441034493,Address [addressLine=441034493, city=429 Tiger Ln, zipCode=Beverly Hills, stateCode=90212]
Chauncey,Motley,232870764,Address [addressLine=232870764, city=63 E Aurora Dr, zipCode=Orlando, stateCode=32804]
Chaya,Malvin,441034494,Address [addressLine=441034494, city=560 Civic Center Dr, zipCode=Ann Arbor, stateCode=48103]
Cherry,Lietz,597968810,Address [addressLine=597968810, city=40 9th Ave Sw #91, zipCode=Waterford, stateCode=48329]
Cheryl,Haroldson,441034495,Address [addressLine=441034495, city=92 Main St, zipCode=Atlantic City, stateCode=8401]
Christiane,Eschberger,719843216,Address [addressLine=719843216, city=96541 W Central Blvd, zipCode=Phoenix, stateCode=85034]
Ciara,Ventura,441034496,Address [addressLine=441034496, city=53 W Carey St, zipCode=Port Jervis, stateCode=12771]
Claribel,Varriano,171632893,Address [addressLine=171632893, city=6 Harry L Dr #6327, zipCode=Perrysburg, stateCode=43551]
Clay,Hoa,441034497,Address [addressLine=441034497, city=73 Saint Ann St #86, zipCode=Reno, stateCode=89502]
Clorinda,Heimann,902616995,Address [addressLine=902616995, city=105 Richmond Valley Rd, zipCode=Escondido, stateCode=92025]
Colette,Kardas,441034498,Address [addressLine=441034498, city=21575 S Apple Creek Rd, zipCode=Omaha, stateCode=68124]
Cordelia,Storment,465261215,Address [addressLine=465261215, city=393 Hammond Dr, zipCode=Lafayette, stateCode=70506]
Corinne,Loder,441034499,Address [addressLine=441034499, city=4 Carroll St, zipCode=North Attleboro, stateCode=2760]
Cory,Gibes,764365528,Address [addressLine=764365528, city=83649 W Belmont Ave, zipCode=San Gabriel, stateCode=91776]
Cristal,Samara,441034500,Address [addressLine=441034500, city=4119 Metropolitan Dr, zipCode=Los Angeles, stateCode=90021]
Cristy,Lother,522002069,Address [addressLine=522002069, city=3989 Portage Tr, zipCode=Escondido, stateCode=92025]
Cyndy,Goldammer,441034501,Address [addressLine=441034501, city=170 Wyoming Ave, zipCode=Burnsville, stateCode=55337]
Cyril,Daufeldt,472488548,Address [addressLine=472488548, city=3 Lawton St, zipCode=New York, stateCode=10013]
Dalene,Riden,441034502,Address [addressLine=441034502, city=66552 Malone Rd, zipCode=Plaistow, stateCode=3865]
Dalene,Schoeneck,151896230,Address [addressLine=151896230, city=910 Rahway Ave, zipCode=Philadelphia, stateCode=19102]
Danica,Bruschke,441034503,Address [addressLine=441034503, city=840 15th Ave, zipCode=Waco, stateCode=76708]
Daniel,Perruzza,331615506,Address [addressLine=331615506, city=11360 S Halsted St, zipCode=Santa Ana, stateCode=92705]
Daniela,Comnick,441034504,Address [addressLine=441034504, city=7 Flowers Rd #403, zipCode=Trenton, stateCode=8611]
Daren,Weirather,371947864,Address [addressLine=371947864, city=9 N College Ave #3, zipCode=Milwaukee, stateCode=53216]
Daron,Dinos,441034505,Address [addressLine=441034505, city=18 Waterloo Geneva Rd, zipCode=Highland Park, stateCode=60035]
Dean,Ketelsen,548256451,Address [addressLine=548256451, city=2 Flynn Rd, zipCode=Hicksville, stateCode=11801]
Deandrea,Hughey,441034506,Address [addressLine=441034506, city=33 Lewis Rd #46, zipCode=Burlington, stateCode=27215]
Deeanna,Juhas,370905670,Address [addressLine=370905670, city=14302 Pennsylvania Ave, zipCode=Huntingdon Valley, stateCode=19006]
Delisa,Crupi,441034507,Address [addressLine=441034507, city=47565 W Grand Ave, zipCode=Newark, stateCode=7105]
Delmy,Ahle,733003974,Address [addressLine=733003974, city=65895 S 16th St, zipCode=Providence, stateCode=2909]
Denise,Patak,441034508,Address [addressLine=441034508, city=2139 Santa Rosa Ave, zipCode=Orlando, stateCode=32801]
Deonna,Kippley,566331044,Address [addressLine=566331044, city=57 Haven Ave #90, zipCode=Southfield, stateCode=48075]
Derick,Dhamer,441034509,Address [addressLine=441034509, city=87163 N Main Ave, zipCode=New York, stateCode=10013]
Detra,Coyier,648462071,Address [addressLine=648462071, city=96950 Hidden Ln, zipCode=Aberdeen, stateCode=21001]
Devora,Perez,441034510,Address [addressLine=441034510, city=72868 Blackington Ave, zipCode=Oakland, stateCode=94606]
Devorah,Chickering,611254674,Address [addressLine=611254674, city=31 Douglas Blvd #950, zipCode=Clovis, stateCode=88101]
Diane,Devreese,441034511,Address [addressLine=441034511, city=1953 Telegraph Rd, zipCode=Saint Joseph, stateCode=64504]
Dick,Wenzinger,665777676,Address [addressLine=665777676, city=22 Spruce St #595, zipCode=Gardena, stateCode=90248]
Dierdre,Yum,441034512,Address [addressLine=441034512, city=63381 Jenks Ave, zipCode=Philadelphia, stateCode=19134]
Dominque,Dickerson,710153387,Address [addressLine=710153387, city=69 Marquette Ave, zipCode=Hayward, stateCode=94545]
Donette,Foller,441034513,Address [addressLine=441034513, city=34 Center St, zipCode=Hamilton, stateCode=45011]
Donte,Kines,168532751,Address [addressLine=168532751, city=3 Aspen St, zipCode=Worcester, stateCode=1602]
Dorothy,Chesterfield,441034514,Address [addressLine=441034514, city=469 Outwater Ln, zipCode=San Diego, stateCode=92126]
Dorthy,Hidvegi,430712736,Address [addressLine=430712736, city=9635 S Main St, zipCode=Boise, stateCode=83704]
Dottie,Hellickson,441034515,Address [addressLine=441034515, city=67 E Chestnut Hill Rd, zipCode=Seattle, stateCode=98133]
Dulce,Labreche,843630967,Address [addressLine=843630967, city=9581 E Arapahoe Rd, zipCode=Rochester, stateCode=48307]
Dyan,Oldroyd,441034516,Address [addressLine=441034516, city=7219 Woodfield Rd, zipCode=Overland Park, stateCode=66204]
Earleen,Mai,490529451,Address [addressLine=490529451, city=75684 S Withlapopka Dr #32, zipCode=Dallas, stateCode=75227]
Eden,Jayson,441034517,Address [addressLine=441034517, city=4 Iwaena St, zipCode=Baltimore, stateCode=21202]
Edna,Miceli,935156826,Address [addressLine=935156826, city=555 Main St, zipCode=Erie, stateCode=16502]
Eladia,Saulter,441034518,Address [addressLine=441034518, city=3958 S Dupont Hwy #7, zipCode=Ramsey, stateCode=7446]
Elke,Sengbusch,998517309,Address [addressLine=998517309, city=9 W Central Ave, zipCode=Phoenix, stateCode=85013]
Elli,Mclaird,441034519,Address [addressLine=441034519, city=6 Sunrise Ave, zipCode=Utica, stateCode=13501]
Elly,Morocco,872076608,Address [addressLine=872076608, city=7 W 32nd St, zipCode=Erie, stateCode=16502]
Elouise,Gwalthney,441034520,Address [addressLine=441034520, city=9506 Edgemore Ave, zipCode=Bladensburg, stateCode=20710]
Elvera,Benimadho,890971655,Address [addressLine=890971655, city=99385 Charity St #840, zipCode=San Jose, stateCode=95110]
Elza,Lipke,441034521,Address [addressLine=441034521, city=6794 Lake Dr E, zipCode=Newark, stateCode=7104]
Emerson,Bowley,268099023,Address [addressLine=268099023, city=762 S Main St, zipCode=Madison, stateCode=53711]
Erick,Ferencz,441034522,Address [addressLine=441034522, city=20 S Babcock St, zipCode=Fairbanks, stateCode=99712]
Erick,Nievas,180302111,Address [addressLine=180302111, city=45 E Acacia Ct, zipCode=Chicago, stateCode=60624]
Erinn,Canlas,441034523,Address [addressLine=441034523, city=13 S Hacienda Dr, zipCode=Livingston, stateCode=7039]
Ernest,Syrop,415126767,Address [addressLine=415126767, city=94 Chase Rd, zipCode=Hyattsville, stateCode=20785]
Ernie,Stenseth,441034524,Address [addressLine=441034524, city=45 E Liberty St, zipCode=Ridgefield Park, stateCode=7660]
Estrella,Samu,421882397,Address [addressLine=421882397, city=64 Lakeview Ave, zipCode=Beloit, stateCode=53511]
Ettie,Hoopengardner,441034525,Address [addressLine=441034525, city=39 Franklin Ave, zipCode=Richland, stateCode=99352]
Eun,Coody,506970881,Address [addressLine=506970881, city=84 Bloomfield Ave, zipCode=Spartanburg, stateCode=29301]
Evangelina,Radde,441034526,Address [addressLine=441034526, city=992 Civic Center Dr, zipCode=Philadelphia, stateCode=19123]
Ezekiel,Chui,788660700,Address [addressLine=788660700, city=2 Cedar Ave #84, zipCode=Easton, stateCode=21601]
Fabiola,Hauenstein,441034527,Address [addressLine=441034527, city=8573 Lincoln Blvd, zipCode=York, stateCode=17404]
Fannie,Lungren,817993721,Address [addressLine=817993721, city=17 Us Highway 111, zipCode=Round Rock, stateCode=78664]
Fatima,Saylors,441034528,Address [addressLine=441034528, city=2 Lighthouse Ave, zipCode=Hopkins, stateCode=55343]
Fausto,Agramonte,733249713,Address [addressLine=733249713, city=5 Harrison Rd, zipCode=New York, stateCode=10038]
Felicidad,Poullion,441034529,Address [addressLine=441034529, city=9939 N 14th St, zipCode=Riverton, stateCode=8077]
Felix,Hirpara,349661352,Address [addressLine=349661352, city=7563 Cornwall Rd #4462, zipCode=Denver, stateCode=17517]
Fernanda,Jillson,441034530,Address [addressLine=441034530, city=60480 Old Us Highway 51, zipCode=Preston, stateCode=21655]
Filiberto,Tawil,120777385,Address [addressLine=120777385, city=3882 W Congress St #799, zipCode=Los Angeles, stateCode=90016]
Fletcher,Flosi,441034531,Address [addressLine=441034531, city=394 Manchester Blvd, zipCode=Rockford, stateCode=61109]
Flo,Bookamer,710857308,Address [addressLine=710857308, city=89992 E 15th St, zipCode=Alliance, stateCode=69301]
France,Buzick,441034532,Address [addressLine=441034532, city=64 Newman Springs Rd E, zipCode=Brooklyn, stateCode=11219]
Francine,Vocelka,780635338,Address [addressLine=780635338, city=366 South Dr, zipCode=Las Cruces, stateCode=88011]
Franklyn,Emard,441034533,Address [addressLine=441034533, city=4379 Highway 116, zipCode=Philadelphia, stateCode=19103]
Frederica,Blunk,424757425,Address [addressLine=424757425, city=99586 Main St, zipCode=Dallas, stateCode=75207]
Freeman,Gochal,441034534,Address [addressLine=441034534, city=383 Gunderman Rd #197, zipCode=Coatesville, stateCode=19320]
Gail,Kitty,726513977,Address [addressLine=726513977, city=735 Crawford Dr, zipCode=Anchorage, stateCode=99501]
Gail,Similton,441034535,Address [addressLine=441034535, city=62 Monroe St, zipCode=Thousand Palms, stateCode=92276]
Galen,Cantres,557156933,Address [addressLine=557156933, city=617 Nw 36th Ave, zipCode=Brook Park, stateCode=44142]
Garry,Keetch,441034536,Address [addressLine=441034536, city=5 Green Pond Rd #4, zipCode=Southampton, stateCode=18966]
Gary,Nunlee,435148520,Address [addressLine=435148520, city=2 W Mount Royal Ave, zipCode=Fortville, stateCode=46040]
Gayla,Schnitzler,441034537,Address [addressLine=441034537, city=38 Pleasant Hill Rd, zipCode=Hayward, stateCode=94545]
Gearldine,Gellinger,341631569,Address [addressLine=341631569, city=4 Bloomfield Ave, zipCode=Irving, stateCode=75061]
Geoffrey,Acey,441034538,Address [addressLine=441034538, city=7 West Ave #1, zipCode=Palatine, stateCode=60067]
Georgene,Montezuma,485955077,Address [addressLine=485955077, city=98 University Dr, zipCode=San Ramon, stateCode=94583]
Gertude,Witten,441034539,Address [addressLine=441034539, city=7 Tarrytown Rd, zipCode=Cincinnati, stateCode=45217]
Gilma,Liukko,670511035,Address [addressLine=670511035, city=16452 Greenwich St, zipCode=Garden City, stateCode=11530]
Gladys,Rim,441034540,Address [addressLine=441034540, city=322 New Horizon Blvd, zipCode=Milwaukee, stateCode=53207]
Glen,Bartolet,969014845,Address [addressLine=969014845, city=8739 Hudson St, zipCode=Vashon, stateCode=98070]
Glendora,Sarbacher,441034541,Address [addressLine=441034541, city=2140 Diamond Blvd, zipCode=Rohnert Park, stateCode=94928]
Glenn,Berray,107879511,Address [addressLine=107879511, city=29 Cherry St #7073, zipCode=Des Moines, stateCode=50315]
Glenna,Slayton,441034542,Address [addressLine=441034542, city=2759 Livingston Ave, zipCode=Memphis, stateCode=38118]
Glory,Kulzer,911775228,Address [addressLine=911775228, city=55892 Jacksonville Rd, zipCode=Owings Mills, stateCode=21117]
Glory,Schieler,441034543,Address [addressLine=441034543, city=5 E Truman Rd, zipCode=Abilene, stateCode=79602]
Golda,Kaniecki,648017187,Address [addressLine=648017187, city=6201 S Nevada Ave, zipCode=Toms River, stateCode=8755]
Goldie,Schirpke,441034544,Address [addressLine=441034544, city=34 Saint George Ave #2, zipCode=Bangor, stateCode=4401]
Gracia,Melnyk,598906841,Address [addressLine=598906841, city=97 Airport Loop Dr, zipCode=Jacksonville, stateCode=32216]
Graciela,Ruta,441034545,Address [addressLine=441034545, city=98 Connecticut Ave Nw, zipCode=Chagrin Falls, stateCode=44023]
Gregoria,Pawlowicz,719372516,Address [addressLine=719372516, city=455 N Main Ave, zipCode=Garden City, stateCode=11530]
Gwenn,Suffield,441034546,Address [addressLine=441034546, city=3270 Dequindre Rd, zipCode=Deer Park, stateCode=11729]
Harrison,Haufler,778453961,Address [addressLine=778453961, city=759 Eldora St, zipCode=New Haven, stateCode=6515]
Haydee,Denooyer,441034547,Address [addressLine=441034547, city=25346 New Rd, zipCode=New York, stateCode=10016]
Heike,Berganza,563457508,Address [addressLine=563457508, city=3 Railway Ave #75, zipCode=Little Falls, stateCode=7424]
Helaine,Halter,441034548,Address [addressLine=441034548, city=8 Sheridan Rd, zipCode=Jersey City, stateCode=7304]
Helene,Rodenberger,670980724,Address [addressLine=670980724, city=347 Chestnut St, zipCode=Peoria, stateCode=85381]
Helga,Fredicks,441034549,Address [addressLine=441034549, city=42754 S Ash Ave, zipCode=Buffalo, stateCode=14228]
Herman,Demesa,375023811,Address [addressLine=375023811, city=9 Norristown Rd, zipCode=Troy, stateCode=12180]
Hermila,Thyberg,441034550,Address [addressLine=441034550, city=1 Rancho Del Mar Shopping C, zipCode=Providence, stateCode=2903]
Herminia,Nicolozakes,459323127,Address [addressLine=459323127, city=4 58th St #3519, zipCode=Scottsdale, stateCode=85254]
Hillary,Skulski,441034551,Address [addressLine=441034551, city=9 Wales Rd Ne #914, zipCode=Homosassa, stateCode=34448]
Hoa,Sarao,170047157,Address [addressLine=170047157, city=27846 Lafayette Ave, zipCode=Oak Hill, stateCode=32759]
Howard,Paulas,441034552,Address [addressLine=441034552, city=866 34th Ave, zipCode=Denver, stateCode=80231]
Hubert,Walthall,438647851,Address [addressLine=438647851, city=95 Main Ave #2, zipCode=Barberton, stateCode=44203]
Ilene,Eroman,441034553,Address [addressLine=441034553, city=2853 S Central Expy, zipCode=Glen Burnie, stateCode=21061]
Iluminada,Ohms,539923494,Address [addressLine=539923494, city=72 Southern Blvd, zipCode=Mesa, stateCode=85204]
Irma,Wolfgramm,441034554,Address [addressLine=441034554, city=9745 W Main St, zipCode=Randolph, stateCode=7869]
Izetta,Funnell,599648154,Address [addressLine=599648154, city=82 Winsor St #54, zipCode=Atlanta, stateCode=30340]
Izetta,Dewar,441034555,Address [addressLine=441034555, city=2 W Scyene Rd #3, zipCode=Baltimore, stateCode=21217]
Jaclyn,Bachman,415418234,Address [addressLine=415418234, city=721 Interstate 45 S, zipCode=Colorado Springs, stateCode=80919]
Jacqueline,Rowling,441034556,Address [addressLine=441034556, city=1 N San Saba, zipCode=Erie, stateCode=16501]
Jade,Farrar,838775046,Address [addressLine=838775046, city=6882 Torresdale Ave, zipCode=Columbia, stateCode=29201]
Jamal,Vanausdal,441034557,Address [addressLine=441034557, city=53075 Sw 152nd Ter #615, zipCode=Monroe Township, stateCode=8831]
James,Butt,740995603,Address [addressLine=740995603, city=6649 N Blue Gum St, zipCode=New Orleans, stateCode=70116]
Janey,Gabisi,441034558,Address [addressLine=441034558, city=40 Cambridge Ave, zipCode=Madison, stateCode=53715]
Jani,Biddy,188812718,Address [addressLine=188812718, city=61556 W 20th Ave, zipCode=Seattle, stateCode=98104]
Janine,Rhoden,441034559,Address [addressLine=441034559, city=92 Broadway, zipCode=Astoria, stateCode=11103]
Jeanice,Claucherty,707728253,Address [addressLine=707728253, city=19 Amboy Ave, zipCode=Miami, stateCode=33142]
Jenelle,Regusters,441034560,Address [addressLine=441034560, city=3211 E Northeast Loop, zipCode=Tampa, stateCode=33619]
Jennie,Drymon,568569111,Address [addressLine=568569111, city=63728 Poway Rd #1, zipCode=Scranton, stateCode=18509]
Jennifer,Fallick,441034561,Address [addressLine=441034561, city=44 58th St, zipCode=Wheeling, stateCode=60090]
Jerry,Zurcher,146714672,Address [addressLine=146714672, city=77 Massillon Rd #822, zipCode=Satellite Beach, stateCode=32937]
Jerry,Dallen,441034562,Address [addressLine=441034562, city=393 Lafayette Ave, zipCode=Richmond, stateCode=23219]
Jess,Chaffins,188591452,Address [addressLine=188591452, city=18 3rd Ave, zipCode=New York, stateCode=10016]
Jesusa,Shin,441034563,Address [addressLine=441034563, city=2239 Shawnee Mission Pky, zipCode=Tullahoma, stateCode=37388]
Jesusita,Flister,173587769,Address [addressLine=173587769, city=3943 N Highland Ave, zipCode=Lancaster, stateCode=17601]
Jettie,Mconnell,441034564,Address [addressLine=441034564, city=50 E Wacker Dr, zipCode=Bridgewater, stateCode=8807]
Jina,Briddick,960004831,Address [addressLine=960004831, city=38938 Park Blvd, zipCode=Boston, stateCode=2128]
Joanna,Leinenbach,441034565,Address [addressLine=441034565, city=1 Washington St, zipCode=Lake Worth, stateCode=33461]
Joesph,Degonia,841509829,Address [addressLine=841509829, city=2887 Knowlton St #5435, zipCode=Berkeley, stateCode=94710]
Johnetta,Abdallah,441034566,Address [addressLine=441034566, city=1088 Pinehurst St, zipCode=Chapel Hill, stateCode=27514]
Johnna,Engelberg,186811360,Address [addressLine=186811360, city=5 S Colorado Blvd #449, zipCode=Bothell, stateCode=98021]
Jolanda,Hanafan,441034567,Address [addressLine=441034567, city=37855 Nolan Rd, zipCode=Bangor, stateCode=4401]
Jolene,Ostolaza,504230732,Address [addressLine=504230732, city=1610 14th St Nw, zipCode=Newport News, stateCode=23608]
Joni,Breland,441034568,Address [addressLine=441034568, city=35 E Main St #43, zipCode=Elk Grove Village, stateCode=60007]
Jose,Stockham,309612577,Address [addressLine=309612577, city=128 Bransten Rd, zipCode=New York, stateCode=10011]
Joseph,Cryer,441034569,Address [addressLine=441034569, city=60 Fillmore Ave, zipCode=Huntington Beach, stateCode=92647]
Josephine,Darakjy,409443935,Address [addressLine=409443935, city=4 B Blue Ridge Blvd, zipCode=Brighton, stateCode=48116]
Josphine,Villanueva,441034570,Address [addressLine=441034570, city=63 Smith Ln #8343, zipCode=Moss, stateCode=38575]
Jovita,Oles,653792535,Address [addressLine=653792535, city=8 S Haven St, zipCode=Daytona Beach, stateCode=32114]
Judy,Aquas,441034571,Address [addressLine=441034571, city=8977 Connecticut Ave Nw #3, zipCode=Niles, stateCode=49120]
Junita,Brideau,328951582,Address [addressLine=328951582, city=6 S Broadway St, zipCode=Cedar Grove, stateCode=7009]
Junita,Stoltzman,441034572,Address [addressLine=441034572, city=94 W Dodge Rd, zipCode=Carson City, stateCode=89701]
Justine,Mugnolo,398201275,Address [addressLine=398201275, city=38062 E Main St, zipCode=New York, stateCode=10048]
Justine,Ferrario,441034573,Address [addressLine=441034573, city=48 Stratford Ave, zipCode=Pomona, stateCode=91768]
Jutta,Amyot,587829079,Address [addressLine=587829079, city=49 N Mays St, zipCode=Broussard, stateCode=70518]
Kaitlyn,Ogg,441034574,Address [addressLine=441034574, city=2 S Biscayne Blvd, zipCode=Baltimore, stateCode=21230]
Kallie,Blackwood,736083015,Address [addressLine=736083015, city=701 S Harrison Rd, zipCode=San Francisco, stateCode=94104]
Kanisha,Waycott,441034575,Address [addressLine=441034575, city=5 Tomahawk Dr, zipCode=Los Angeles, stateCode=90006]
Karan,Karpin,662586047,Address [addressLine=662586047, city=3 Elmwood Dr, zipCode=Beaverton, stateCode=97005]
Karl,Klonowski,441034576,Address [addressLine=441034576, city=76 Brooks St #9, zipCode=Flemington, stateCode=8822]
Kasandra,Semidey,538711582,Address [addressLine=538711582, city=369 Latham St #500, zipCode=Saint Louis, stateCode=63102]
Kate,Keneipp,441034577,Address [addressLine=441034577, city=33 N Michigan Ave, zipCode=Green Bay, stateCode=54301]
Kati,Rulapaugh,107769833,Address [addressLine=107769833, city=6980 Dorsett Rd, zipCode=Abilene, stateCode=67410]
Katina,Polidori,441034578,Address [addressLine=441034578, city=5 Little River Tpke, zipCode=Wilmington, stateCode=1887]
Kattie,Vonasek,172706923,Address [addressLine=172706923, city=2845 Boulder Crescent St, zipCode=Cleveland, stateCode=44103]
Kayleigh,Lace,441034579,Address [addressLine=441034579, city=43 Huey P Long Ave, zipCode=Lafayette, stateCode=70508]
Keneth,Borgman,441456296,Address [addressLine=441456296, city=86350 Roszel Rd, zipCode=Phoenix, stateCode=85012]
Kenneth,Grenet,441034580,Address [addressLine=441034580, city=2167 Sierra Rd, zipCode=East Lansing, stateCode=48823]
Kerry,Theodorov,677397469,Address [addressLine=677397469, city=6916 W Main St, zipCode=Sacramento, stateCode=95827]
Kiley,Caldarera,441034581,Address [addressLine=441034581, city=25 E 75th St #69, zipCode=Los Angeles, stateCode=90034]
Kimberlie,Duenas,256965385,Address [addressLine=256965385, city=8100 Jacksonville Rd #7, zipCode=Hays, stateCode=67601]
Kimbery,Madarang,441034582,Address [addressLine=441034582, city=798 Lund Farm Way, zipCode=Rockaway, stateCode=7866]
Kirk,Herritt,651007554,Address [addressLine=651007554, city=88 15th Ave Ne, zipCode=Vestal, stateCode=13850]
Kris,Marrier,441034583,Address [addressLine=441034583, city=228 Runamuck Pl #2808, zipCode=Baltimore, stateCode=21224]
Krissy,Rauser,962800480,Address [addressLine=962800480, city=8728 S Broad St, zipCode=Coram, stateCode=11727]
Kristeen,Turinetti,441034584,Address [addressLine=441034584, city=70099 E North Ave, zipCode=Arlington, stateCode=76013]
Kristel,Ehmann,422956510,Address [addressLine=422956510, city=92899 Kalakaua Ave, zipCode=El Paso, stateCode=79925]
Kristofer,Bennick,441034585,Address [addressLine=441034585, city=772 W River Dr, zipCode=Bloomington, stateCode=47404]
Lai,Gato,102793828,Address [addressLine=102793828, city=37 Alabama Ave, zipCode=Evanston, stateCode=60201]
Lai,Harabedian,441034586,Address [addressLine=441034586, city=1933 Packer Ave #2, zipCode=Novato, stateCode=94945]
Larae,Gudroe,710118702,Address [addressLine=710118702, city=6651 Municipal Rd, zipCode=Houma, stateCode=70360]
Lashandra,Klang,441034587,Address [addressLine=441034587, city=810 N La Brea Ave, zipCode=King of Prussia, stateCode=19406]
Lashaunda,Lizama,875101204,Address [addressLine=875101204, city=3387 Ryan Dr, zipCode=Hanover, stateCode=21076]
Lashawnda,Stuer,441034588,Address [addressLine=441034588, city=7422 Martin Ave #8, zipCode=Toledo, stateCode=43607]
Lashon,Vizarro,674021532,Address [addressLine=674021532, city=433 Westminster Blvd #590, zipCode=Roseville, stateCode=95661]
Laticia,Merced,441034589,Address [addressLine=441034589, city=72 Mannix Dr, zipCode=Cincinnati, stateCode=45203]
Latrice,Tolfree,770290118,Address [addressLine=770290118, city=81 Norris Ave #525, zipCode=Ronkonkoma, stateCode=11779]
Lauran,Burnard,441034590,Address [addressLine=441034590, city=66697 Park Pl #3224, zipCode=Riverton, stateCode=82501]
Laurel,Reitler,287563436,Address [addressLine=287563436, city=6 Kains Ave, zipCode=Baltimore, stateCode=21215]
Laurel,Pagliuca,441034591,Address [addressLine=441034591, city=36 Enterprise St Se, zipCode=Richland, stateCode=99352]
Lavera,Perin,158672890,Address [addressLine=158672890, city=678 3rd Ave, zipCode=Miami, stateCode=33196]
Lavonda,Hengel,441034592,Address [addressLine=441034592, city=87 Imperial Ct #79, zipCode=Fargo, stateCode=58102]
Lavonna,Wolny,160388132,Address [addressLine=160388132, city=5 Cabot Rd, zipCode=Mc Lean, stateCode=22102]
Lawrence,Lorens,441034593,Address [addressLine=441034593, city=9 Hwy, zipCode=Providence, stateCode=2906]
Layla,Springe,190026947,Address [addressLine=190026947, city=229 N Forty Driv, zipCode=New York, stateCode=10011]
Leatha,Hagele,441034594,Address [addressLine=441034594, city=627 Walford Ave, zipCode=Dallas, stateCode=75227]
Lemuel,Latzke,164652450,Address [addressLine=164652450, city=70 Euclid Ave #722, zipCode=Bohemia, stateCode=11716]
Lenna,Paprocki,441034595,Address [addressLine=441034595, city=639 Main St, zipCode=Anchorage, stateCode=99501]
Lenna,Newville,953971778,Address [addressLine=953971778, city=987 Main St, zipCode=Raleigh, stateCode=27601]
Leonida,Gobern,441034596,Address [addressLine=441034596, city=5 Elmwood Park Blvd, zipCode=Biloxi, stateCode=39530]
Leonora,Mauson,374289562,Address [addressLine=374289562, city=3381 E 40th Ave, zipCode=Passaic, stateCode=7055]
Leota,Dilliard,441034597,Address [addressLine=441034597, city=7 W Jackson Blvd, zipCode=San Jose, stateCode=95111]
Leota,Ragel,913519656,Address [addressLine=913519656, city=99 5th Ave #33, zipCode=Trion, stateCode=30753]
Leslie,Threets,441034598,Address [addressLine=441034598, city=2 A Kelley Dr, zipCode=Katonah, stateCode=10536]
Lettie,Isenhower,308108740,Address [addressLine=308108740, city=70 W Main St, zipCode=Beachwood, stateCode=44122]
Levi,Munis,441034599,Address [addressLine=441034599, city=2094 Ne 36th Ave, zipCode=Worcester, stateCode=1603]
Lezlie,Craghead,279119852,Address [addressLine=279119852, city=749 W 18th St #45, zipCode=Smithfield, stateCode=27577]
Ligia,Reiber,441034600,Address [addressLine=441034600, city=206 Main St #2804, zipCode=Lansing, stateCode=48933]
Lili,Paskin,277145862,Address [addressLine=277145862, city=20113 4th Ave E, zipCode=Kearny, stateCode=7032]
Lilli,Scriven,441034601,Address [addressLine=441034601, city=33 State St, zipCode=Abilene, stateCode=79601]
Lindsey,Dilello,185856614,Address [addressLine=185856614, city=52777 Leaders Heights Rd, zipCode=Ontario, stateCode=91761]
Linn,Paa,441034602,Address [addressLine=441034602, city=1 S Pine St, zipCode=Memphis, stateCode=38112]
Lisha,Centini,173366263,Address [addressLine=173366263, city=64 5th Ave #1153, zipCode=Mc Lean, stateCode=22102]
Lizbeth,Kohl,441034603,Address [addressLine=441034603, city=35433 Blake St #588, zipCode=Gardena, stateCode=90248]
Lizette,Stem,268836996,Address [addressLine=268836996, city=501 N 19th Ave, zipCode=Cherry Hill, stateCode=8002]
Lonna,Diestel,441034604,Address [addressLine=441034604, city=1482 College Ave, zipCode=Fayetteville, stateCode=28301]
Lonny,Weglarz,688375327,Address [addressLine=688375327, city=51120 State Route 18, zipCode=Salt Lake City, stateCode=84115]
Lorean,Martabano,441034605,Address [addressLine=441034605, city=85092 Southern Blvd, zipCode=San Antonio, stateCode=78204]
Loren,Asar,827387314,Address [addressLine=827387314, city=6 Ridgewood Center Dr, zipCode=Old Forge, stateCode=18518]
Loreta,Timenez,441034606,Address [addressLine=441034606, city=47857 Coney Island Ave, zipCode=Clinton, stateCode=20735]
Lorrie,Nestle,133589304,Address [addressLine=133589304, city=39 S 7th St, zipCode=Tullahoma, stateCode=37388]
Lorrine,Worlds,441034607,Address [addressLine=441034607, city=8 Fair Lawn Ave, zipCode=Tampa, stateCode=33614]
Louisa,Cronauer,720346395,Address [addressLine=720346395, city=524 Louisiana Ave Nw, zipCode=San Leandro, stateCode=94577]
Louvenia,Beech,441034608,Address [addressLine=441034608, city=598 43rd St, zipCode=Beverly Hills, stateCode=90210]
Lucina,Lary,988723082,Address [addressLine=988723082, city=8597 W National Ave, zipCode=Cocoa, stateCode=32922]
Lucy,Treston,441034609,Address [addressLine=441034609, city=57254 Brickell Ave #372, zipCode=Worcester, stateCode=1602]
Luisa,Jurney,606207822,Address [addressLine=606207822, city=25 Se 176th Pl, zipCode=Cambridge, stateCode=2138]
Lynelle,Auber,441034610,Address [addressLine=441034610, city=32820 Corkwood Rd, zipCode=Newark, stateCode=7104]
Ma,Layous,645425633,Address [addressLine=645425633, city=78112 Morris Ave, zipCode=North Haven, stateCode=6473]
Maile,Linahan,441034611,Address [addressLine=441034611, city=9 Plainsboro Rd #598, zipCode=Greensboro, stateCode=27409]
Malcolm,Tromblay,904925205,Address [addressLine=904925205, city=747 Leonis Blvd, zipCode=Annandale, stateCode=22003]
Malinda,Hochard,441034612,Address [addressLine=441034612, city=55 Riverside Ave, zipCode=Indianapolis, stateCode=46202]
Margart,Meisel,832836870,Address [addressLine=832836870, city=868 State St #38, zipCode=Cincinnati, stateCode=45251]
Marge,Limmel,441034613,Address [addressLine=441034613, city=189 Village Park Rd, zipCode=Crestview, stateCode=32536]
Marguerita,Hiatt,928591213,Address [addressLine=928591213, city=82 N Highway 67, zipCode=Oakley, stateCode=94561]
Mari,Lueckenbach,441034614,Address [addressLine=441034614, city=1 Century Park E, zipCode=San Diego, stateCode=92110]
Mariann,Bilden,868105351,Address [addressLine=868105351, city=3125 Packer Ave #9851, zipCode=Austin, stateCode=78753]
Marjory,Mastella,441034615,Address [addressLine=441034615, city=71 San Mateo Ave, zipCode=Wayne, stateCode=19087]
Markus,Lukasik,175519420,Address [addressLine=175519420, city=89 20th St E #779, zipCode=Sterling Heights, stateCode=48310]
Marti,Maybury,441034616,Address [addressLine=441034616, city=4 Warehouse Point Rd #7, zipCode=Chicago, stateCode=60638]
Martina,Staback,237799012,Address [addressLine=237799012, city=7 W Wabansia Ave #227, zipCode=Orlando, stateCode=32822]
Marvel,Raymo,441034617,Address [addressLine=441034617, city=9 Vanowen St, zipCode=College Station, stateCode=77840]
Maryann,Royster,455624140,Address [addressLine=455624140, city=74 S Westgate St, zipCode=Albany, stateCode=12204]
Matthew,Neither,441034618,Address [addressLine=441034618, city=636 Commerce Dr #42, zipCode=Shakopee, stateCode=55379]
Mattie,Poquette,177936244,Address [addressLine=177936244, city=73 State Road 434 E, zipCode=Phoenix, stateCode=85013]
Maurine,Yglesias,441034619,Address [addressLine=441034619, city=59 Shady Ln #53, zipCode=Milwaukee, stateCode=53214]
Meaghan,Garufi,824502938,Address [addressLine=824502938, city=69734 E Carrillo St, zipCode=Mc Minnville, stateCode=37110]
Melissa,Wiklund,441034620,Address [addressLine=441034620, city=61 13 Stoneridge #835, zipCode=Findlay, stateCode=45840]
Melodie,Knipp,520780725,Address [addressLine=520780725, city=326 E Main St #6496, zipCode=Thousand Oaks, stateCode=91362]
Merilyn,Bayless,441034621,Address [addressLine=441034621, city=195 13n N, zipCode=Santa Clara, stateCode=95054]
Merissa,Tomblin,571783428,Address [addressLine=571783428, city=34 Raritan Center Pky, zipCode=Bellflower, stateCode=90706]
Merlyn,Lawler,441034622,Address [addressLine=441034622, city=4671 Alemany Blvd, zipCode=Jersey City, stateCode=7304]
Micaela,Rhymes,976213415,Address [addressLine=976213415, city=20932 Hedley St, zipCode=Concord, stateCode=94520]
Minna,Amigon,441034623,Address [addressLine=441034623, city=2371 Jerrold Ave, zipCode=Kulpsville, stateCode=19443]
Mireya,Frerking,907492130,Address [addressLine=907492130, city=8429 Miller Rd, zipCode=Pelham, stateCode=10803]
Mirta,Mallett,441034624,Address [addressLine=441034624, city=7 S San Marcos Rd, zipCode=New York, stateCode=10004]
Mitsue,Tollner,180270110,Address [addressLine=180270110, city=7 Eads St, zipCode=Chicago, stateCode=60632]
Mitsue,Scipione,441034625,Address [addressLine=441034625, city=77 222 Dr, zipCode=Oroville, stateCode=95965]
Mitzie,Hudnall,188717649,Address [addressLine=188717649, city=17 Jersey Ave, zipCode=Englewood, stateCode=80110]
Mollie,Mcdoniel,441034626,Address [addressLine=441034626, city=8590 Lake Lizzie Dr, zipCode=Bowling Green, stateCode=43402]
Mona,Delasancha,144912118,Address [addressLine=144912118, city=38773 Gravois Ave, zipCode=Cheyenne, stateCode=82001]
Moon,Parlato,441034627,Address [addressLine=441034627, city=74989 Brandon St, zipCode=Wellsville, stateCode=14895]
Mozell,Pelkowski,279582974,Address [addressLine=279582974, city=577 Parade St, zipCode=South San Francisco, stateCode=94080]
My,Rantanen,441034628,Address [addressLine=441034628, city=8 Mcarthur Ln, zipCode=Richboro, stateCode=18954]
Myra,Munns,175937726,Address [addressLine=175937726, city=461 Prospect Pl #316, zipCode=Euless, stateCode=76040]
Nan,Koppinger,441034629,Address [addressLine=441034629, city=88827 Frankford Ave, zipCode=Greensboro, stateCode=27401]
Nana,Wrinkles,798847980,Address [addressLine=798847980, city=6 Van Buren St, zipCode=Mount Vernon, stateCode=10553]
Natalie,Fern,441034630,Address [addressLine=441034630, city=7140 University Ave, zipCode=Rock Springs, stateCode=82901]
Nelida,Sawchuk,678711378,Address [addressLine=678711378, city=3 State Route 35 S, zipCode=Paramus, stateCode=7652]
Nichelle,Meteer,441034631,Address [addressLine=441034631, city=72 Beechwood Ter, zipCode=Chicago, stateCode=60657]
Nickolas,Juvera,288585560,Address [addressLine=288585560, city=177 S Rider Trl #52, zipCode=Crystal River, stateCode=34429]
Nicolette,Brossart,441034632,Address [addressLine=441034632, city=1 Midway Rd, zipCode=Westborough, stateCode=1581]
Nieves,Gotter,240557785,Address [addressLine=240557785, city=4940 Pulaski Park Dr, zipCode=Portland, stateCode=97202]
Noah,Kalafatis,441034633,Address [addressLine=441034633, city=1950 5th Ave, zipCode=Milwaukee, stateCode=53209]
Nobuko,Halsey,891415752,Address [addressLine=891415752, city=8139 I Hwy 10 #92, zipCode=New Bedford, stateCode=2745]
Norah,Waymire,441034634,Address [addressLine=441034634, city=6 Middlegate Rd #106, zipCode=San Francisco, stateCode=94107]
Novella,Degroot,554280053,Address [addressLine=554280053, city=303 N Radcliffe St, zipCode=Hilo, stateCode=96720]
Nu,Mcnease,441034635,Address [addressLine=441034635, city=88 Sw 28th Ter, zipCode=Harrison, stateCode=7029]
Olive,Matuszak,905987393,Address [addressLine=905987393, city=13252 Lighthouse Ave, zipCode=Cathedral City, stateCode=92234]
Oretha,Menter,441034636,Address [addressLine=441034636, city=8 County Center Dr #647, zipCode=Boston, stateCode=2210]
Ozell,Shealy,869973242,Address [addressLine=869973242, city=8 Industry Ln, zipCode=New York, stateCode=10002]
Pamella,Schmierer,441034637,Address [addressLine=441034637, city=5161 Dorsett Rd, zipCode=Homestead, stateCode=33030]
Pamella,Fortino,296704534,Address [addressLine=296704534, city=669 Packerland Dr #1438, zipCode=Denver, stateCode=80212]
Paris,Wide,441034638,Address [addressLine=441034638, city=187 Market St, zipCode=Atlanta, stateCode=30342]
Paz,Sahagun,581786596,Address [addressLine=581786596, city=919 Wall Blvd, zipCode=Meridian, stateCode=39307]
Peggie,Sturiale,441034639,Address [addressLine=441034639, city=9 N 14th St, zipCode=El Cajon, stateCode=92020]
Penney,Weight,294838716,Address [addressLine=294838716, city=18 Fountain St, zipCode=Anchorage, stateCode=99515]
Pete,Dubaldi,441034640,Address [addressLine=441034640, city=2215 Prosperity Dr, zipCode=Lyndhurst, stateCode=7071]
Portia,Stimmel,402688625,Address [addressLine=402688625, city=3732 Sherman Ave, zipCode=Bridgewater, stateCode=8807]
Quentin,Birkner,441034641,Address [addressLine=441034641, city=7061 N 2nd St, zipCode=Burnsville, stateCode=55337]
Quentin,Swayze,490236315,Address [addressLine=490236315, city=278 Bayview Ave, zipCode=Milan, stateCode=48160]
Raina,Brachle,441034642,Address [addressLine=441034642, city=3829 Ventura Blvd, zipCode=Butte, stateCode=59701]
Rasheeda,Sayaphon,461188482,Address [addressLine=461188482, city=251 Park Ave #979, zipCode=Saratoga, stateCode=95070]
Raul,Upthegrove,441034643,Address [addressLine=441034643, city=4 E Colonial Dr, zipCode=La Mesa, stateCode=91942]
Raylene,Kampa,387054305,Address [addressLine=387054305, city=2 Sw Nyberg Rd, zipCode=Elkhart, stateCode=46514]
Raymon,Calvaresi,441034644,Address [addressLine=441034644, city=6538 E Pomona St #60, zipCode=Indianapolis, stateCode=46222]
Rebecka,Gesick,573064606,Address [addressLine=573064606, city=2026 N Plankinton Ave #3, zipCode=Austin, stateCode=78754]
Reena,Maisto,441034645,Address [addressLine=441034645, city=9648 S Main, zipCode=Salisbury, stateCode=21801]
Refugia,Jacobos,236409148,Address [addressLine=236409148, city=2184 Worth St, zipCode=Hayward, stateCode=94545]
Regenia,Kannady,441034646,Address [addressLine=441034646, city=10759 Main St, zipCode=Scottsdale, stateCode=85260]
Reita,Leto,269782925,Address [addressLine=269782925, city=55262 N French Rd, zipCode=Indianapolis, stateCode=46240]
Renea,Monterrubio,441034647,Address [addressLine=441034647, city=26 Montgomery St, zipCode=Atlanta, stateCode=30328]
Ressie,Auffrey,265847405,Address [addressLine=265847405, city=23 Palo Alto Sq, zipCode=Miami, stateCode=33134]
Rhea,Aredondo,441034648,Address [addressLine=441034648, city=25657 Live Oak St, zipCode=Brooklyn, stateCode=11226]
Rickie,Plumer,792615949,Address [addressLine=792615949, city=3 N Groesbeck Hwy, zipCode=Toledo, stateCode=43613]
Rikki,Nayar,441034649,Address [addressLine=441034649, city=1644 Clove Rd, zipCode=Miami, stateCode=33155]
Rima,Bevelacqua,923587201,Address [addressLine=923587201, city=2972 Lafayette Ave, zipCode=Gardena, stateCode=90248]
Rodolfo,Butzen,441034650,Address [addressLine=441034650, city=41 Steel Ct, zipCode=Northfield, stateCode=55057]
Rolande,Spickerman,404744960,Address [addressLine=404744960, city=65 W Maple Ave, zipCode=Pearl City, stateCode=96782]
Rolland,Francescon,441034651,Address [addressLine=441034651, city=2726 Charcot Ave, zipCode=Paterson, stateCode=7501]
Ronny,Caiafa,653718474,Address [addressLine=653718474, city=73 Southern Blvd, zipCode=Philadelphia, stateCode=19103]
Roosevelt,Hoffis,441034652,Address [addressLine=441034652, city=60 Old Dover Rd, zipCode=Hialeah, stateCode=33014]
Rory,Papasergi,153123940,Address [addressLine=153123940, city=83 County Road 437 #8581, zipCode=Clarks Summit, stateCode=18411]
Roselle,Estell,441034653,Address [addressLine=441034653, city=8116 Mount Vernon Ave, zipCode=Bucyrus, stateCode=44820]
Rosio,Cork,858734447,Address [addressLine=858734447, city=4 10th St W, zipCode=High Point, stateCode=27263]
Roslyn,Chavous,441034654,Address [addressLine=441034654, city=63517 Dupont St, zipCode=Jackson, stateCode=39211]
Roxane,Campain,442402322,Address [addressLine=442402322, city=1048 Main St, zipCode=Fairbanks, stateCode=99708]
Rozella,Ostrosky,441034655,Address [addressLine=441034655, city=17 Morena Blvd, zipCode=Camarillo, stateCode=93012]
Ruthann,Keener,520869148,Address [addressLine=520869148, city=3424 29th St Se, zipCode=Kerrville, stateCode=78028]
Ryan,Harnos,441034656,Address [addressLine=441034656, city=13 Gunnison St, zipCode=Plano, stateCode=75075]
Sabra,Uyetake,984284024,Address [addressLine=984284024, city=98839 Hawthorne Blvd #6101, zipCode=Columbia, stateCode=29201]
Sage,Wieser,441034657,Address [addressLine=441034657, city=5 Boston Ave #88, zipCode=Sioux Falls, stateCode=57105]
Salena,Karpel,472629786,Address [addressLine=472629786, city=1 Garfield Ave #7, zipCode=Canton, stateCode=44707]
Salome,Lacovara,441034658,Address [addressLine=441034658, city=9677 Commerce Dr, zipCode=Richmond, stateCode=23219]
Samira,Heintzman,350316236,Address [addressLine=350316236, city=8772 Old County Rd #5410, zipCode=Kent, stateCode=98032]
Sarah,Candlish,441034659,Address [addressLine=441034659, city=45 2nd Ave #9759, zipCode=Atlanta, stateCode=30328]
Scarlet,Cartan,424667952,Address [addressLine=424667952, city=9390 S Howell Ave, zipCode=Albany, stateCode=31701]
Selma,Husser,441034660,Address [addressLine=441034660, city=9 State Highway 57 #22, zipCode=Jersey City, stateCode=7306]
Serina,Zagen,563789087,Address [addressLine=563789087, city=7 S Beverly Dr, zipCode=Fort Wayne, stateCode=46802]
Shalon,Shadrick,441034661,Address [addressLine=441034661, city=61047 Mayfield Ave, zipCode=Brooklyn, stateCode=11223]
Sharee,Maile,610451032,Address [addressLine=610451032, city=2094 Montour Blvd, zipCode=Muskegon, stateCode=49442]
Sharen,Bourbon,441034662,Address [addressLine=441034662, city=62 W Austin St, zipCode=Syosset, stateCode=11791]
Sharika,Eanes,328912167,Address [addressLine=328912167, city=75698 N Fiesta Blvd, zipCode=Orlando, stateCode=32806]
Shawna,Palaspas,441034663,Address [addressLine=441034663, city=5 N Cleveland Massillon Rd, zipCode=Thousand Oaks, stateCode=91362]
Shawnda,Yori,458858365,Address [addressLine=458858365, city=50126 N Plankinton Ave, zipCode=Longwood, stateCode=32750]
Shenika,Seewald,441034664,Address [addressLine=441034664, city=4 Otis St, zipCode=Van Nuys, stateCode=91405]
Sheridan,Zane,616225038,Address [addressLine=616225038, city=2409 Alabama Rd, zipCode=Riverside, stateCode=92501]
Sherita,Saras,441034665,Address [addressLine=441034665, city=8 Us Highway 22, zipCode=Colorado Springs, stateCode=80937]
Sheron,Louissant,115026036,Address [addressLine=115026036, city=97 E 3rd St #9, zipCode=Long Island City, stateCode=11101]
Shonda,Greenbush,441034666,Address [addressLine=441034666, city=82 Us Highway 46, zipCode=Clifton, stateCode=7011]
Simona,Morasca,134810497,Address [addressLine=134810497, city=3 Mcauley Dr, zipCode=Ashland, stateCode=44805]
Skye,Fillingim,441034667,Address [addressLine=441034667, city=25 Minters Chapel Rd #9, zipCode=Minneapolis, stateCode=55401]
Solange,Shinko,459758844,Address [addressLine=459758844, city=426 Wolf St, zipCode=Metairie, stateCode=70002]
Staci,Schmaltz,441034668,Address [addressLine=441034668, city=18 Coronado Ave #563, zipCode=Pasadena, stateCode=91106]
Stephaine,Barfield,728029833,Address [addressLine=728029833, city=47154 Whipple Ave Nw, zipCode=Gardena, stateCode=90247]
Stephaine,Vinning,441034669,Address [addressLine=441034669, city=3717 Hamann Industrial Pky, zipCode=San Francisco, stateCode=94104]
Stephane,Myricks,658022664,Address [addressLine=658022664, city=9 Tower Ave, zipCode=Burlington, stateCode=41005]
Stephen,Emigh,441034670,Address [addressLine=441034670, city=3777 E Richmond St #900, zipCode=Akron, stateCode=44302]
Stevie,Westerbeck,390922506,Address [addressLine=390922506, city=26659 N 13th St, zipCode=Costa Mesa, stateCode=92626]
Sue,Kownacki,441034671,Address [addressLine=441034671, city=2 Se 3rd Ave, zipCode=Mesquite, stateCode=75149]
Sylvia,Cousey,526493401,Address [addressLine=526493401, city=287 Youngstown Warren Rd, zipCode=Hampstead, stateCode=21074]
Sylvie,Ryser,441034672,Address [addressLine=441034672, city=649 Tulane Ave, zipCode=Tulsa, stateCode=74105]
Talia,Riopelle,349455755,Address [addressLine=349455755, city=1 N Harlem Ave #9, zipCode=Orange, stateCode=7050]
Tamar,Hoogland,441034673,Address [addressLine=441034673, city=2737 Pistorio Rd #9230, zipCode=London, stateCode=43140]
Tammara,Wardrip,664982840,Address [addressLine=664982840, city=4800 Black Horse Pike, zipCode=Burlingame, stateCode=94010]
Tarra,Nachor,441034674,Address [addressLine=441034674, city=39 Moccasin Dr, zipCode=San Francisco, stateCode=94104]
Taryn,Moyd,429406717,Address [addressLine=429406717, city=48 Lenox St, zipCode=Fairfax, stateCode=22030]
Tasia,Andreason,441034675,Address [addressLine=441034675, city=4 Cowesett Ave, zipCode=Kearny, stateCode=7032]
Tawna,Buvens,218496053,Address [addressLine=218496053, city=3305 Nabell Ave #679, zipCode=New York, stateCode=10009]
Teddy,Pedrozo,441034676,Address [addressLine=441034676, city=46314 Route 130, zipCode=Bridgeport, stateCode=6610]
Tegan,Arceo,903426125,Address [addressLine=903426125, city=62260 Park Stre, zipCode=Monroe Township, stateCode=8831]
Teri,Ennaco,441034677,Address [addressLine=441034677, city=99 Tank Farm Rd, zipCode=Hazleton, stateCode=18201]
Terrilyn,Rodeigues,723761436,Address [addressLine=723761436, city=3718 S Main St, zipCode=New Orleans, stateCode=70130]
Thaddeus,Ankeny,441034678,Address [addressLine=441034678, city=5 Washington St #1, zipCode=Roseville, stateCode=95678]
Theodora,Restrepo,704552597,Address [addressLine=704552597, city=42744 Hamann Industrial Pky #82, zipCode=Miami, stateCode=33136]
Theola,Frey,441034679,Address [addressLine=441034679, city=54169 N Main St, zipCode=Massapequa, stateCode=11758]
Thurman,Manno,874845357,Address [addressLine=874845357, city=9387 Charcot Ave, zipCode=Absecon, stateCode=8201]
Tiera,Frankel,441034680,Address [addressLine=441034680, city=87 Sierra Rd, zipCode=El Monte, stateCode=91731]
Tiffiny,Steffensmeier,462457977,Address [addressLine=462457977, city=32860 Sierra Rd, zipCode=Miami, stateCode=33133]
Timothy,Mulqueen,441034681,Address [addressLine=441034681, city=44 W 4th St, zipCode=Staten Island, stateCode=10309]
Tonette,Wenner,493518371,Address [addressLine=493518371, city=4545 Courthouse Rd, zipCode=Westbury, stateCode=11590]
Tracey,Modzelewski,441034682,Address [addressLine=441034682, city=77132 Coon Rapids Blvd Nw, zipCode=Conroe, stateCode=77301]
Tresa,Sweely,848370909,Address [addressLine=848370909, city=22 Bridle Ln, zipCode=Valley Park, stateCode=63088]
Trinidad,Mcrae,441034683,Address [addressLine=441034683, city=10276 Brooks St, zipCode=San Francisco, stateCode=94105]
Truman,Feichtner,261893317,Address [addressLine=261893317, city=539 Coldwater Canyon Ave, zipCode=Bloomfield, stateCode=7003]
Twana,Felger,441034684,Address [addressLine=441034684, city=1 Commerce Way, zipCode=Portland, stateCode=97224]
Ty,Smith,315388901,Address [addressLine=315388901, city=4646 Kaahumanu St, zipCode=Hackensack, stateCode=7601]
Tyra,Shields,441034685,Address [addressLine=441034685, city=3 Fort Worth Ave, zipCode=Philadelphia, stateCode=19106]
Valentin,Klimek,648630362,Address [addressLine=648630362, city=137 Pioneer Way, zipCode=Chicago, stateCode=60604]
Valentine,Gillian,441034686,Address [addressLine=441034686, city=775 W 17th St, zipCode=San Antonio, stateCode=78204]
Vallie,Mondella,299487720,Address [addressLine=299487720, city=74 W College St, zipCode=Boise, stateCode=83707]
Van,Shire,441034687,Address [addressLine=441034687, city=90131 J St, zipCode=Pittstown, stateCode=8867]
Venita,Maillard,166537427,Address [addressLine=166537427, city=72119 S Walker Ave #63, zipCode=Anaheim, stateCode=92801]
Veronika,Inouye,441034688,Address [addressLine=441034688, city=6 Greenleaf Ave, zipCode=San Jose, stateCode=95111]
Vi,Rentfro,435450665,Address [addressLine=435450665, city=7163 W Clark Rd, zipCode=Freehold, stateCode=7728]
Vilma,Berlanga,441034689,Address [addressLine=441034689, city=79 S Howell Ave, zipCode=Grand Rapids, stateCode=49546]
Vincent,Meinerding,314440812,Address [addressLine=314440812, city=4441 Point Term Mkt, zipCode=Philadelphia, stateCode=19143]
Vincenza,Zepp,441034690,Address [addressLine=441034690, city=395 S 6th St #2, zipCode=El Cajon, stateCode=92020]
Viola,Bitsuie,709992878,Address [addressLine=709992878, city=70 Mechanic St, zipCode=Northridge, stateCode=91325]
Virgie,Kiel,441034691,Address [addressLine=441034691, city=76598 Rd  I 95 #1, zipCode=Denver, stateCode=80216]
Virgina,Tegarden,277627451,Address [addressLine=277627451, city=755 Harbor Way, zipCode=Milwaukee, stateCode=53226]
Viva,Toelkes,441034692,Address [addressLine=441034692, city=4284 Dorigo Ln, zipCode=Chicago, stateCode=60647]
Weldon,Acuff,490955250,Address [addressLine=490955250, city=73 W Barstow Ave, zipCode=Arlington Heights, stateCode=60004]
Whitley,Tomasulo,441034693,Address [addressLine=441034693, city=2 S 15th St, zipCode=Fort Worth, stateCode=76107]
Wilda,Giguere,207842964,Address [addressLine=207842964, city=1747 Calle Amanecer #2, zipCode=Anchorage, stateCode=99501]
Willard,Kolmetz,441034694,Address [addressLine=441034694, city=618 W Yakima Ave, zipCode=Irving, stateCode=75062]
Willodean,Konopacki,543835218,Address [addressLine=543835218, city=55 Hawthorne Blvd, zipCode=Lafayette, stateCode=70506]
Willow,Kusko,441034695,Address [addressLine=441034695, city=90991 Thorburn Ave, zipCode=New York, stateCode=10011]
Winfred,Brucato,281505435,Address [addressLine=281505435, city=201 Ridgewood Rd, zipCode=Moscow, stateCode=83843]
Wynell,Dorshorst,441034696,Address [addressLine=441034696, city=94290 S Buchanan St, zipCode=Pacifica, stateCode=94044]
Xochitl,Discipio,914392716,Address [addressLine=914392716, city=3158 Runamuck Pl, zipCode=Round Rock, stateCode=78664]
Xuan,Rochin,441034697,Address [addressLine=441034697, city=2 Monroe St, zipCode=San Mateo, stateCode=94403]
Yoko,Fishburne,100159023,Address [addressLine=100159023, city=9122 Carpenter Ave, zipCode=New Haven, stateCode=6511]
Yolando,Luczki,441034698,Address [addressLine=441034698, city=422 E 21st St, zipCode=Syracuse, stateCode=13214]
Youlanda,Schemmer,335466908,Address [addressLine=335466908, city=2881 Lewis Rd, zipCode=Prineville, stateCode=97754]
Yuki,Whobrey,441034699,Address [addressLine=441034699, city=1 State Route 27, zipCode=Taylor, stateCode=48180]
Yvonne,Tjepkema,917933895,Address [addressLine=917933895, city=9 Waydell St, zipCode=Fairfield, stateCode=7004]
Zona,Colla,441034700,Address [addressLine=441034700, city=49440 Dearborn St, zipCode=Norwalk, stateCode=6854]
